Exploratory Analysis
…
score_by_dimension_question = data_combined_longer %>%
  group_by(Dimension, Question, QuestionText) %>% 
  summarise(
    Count = n(),
    MeanScore = mean(Response),
    SdScore = sd(Response)
  ) %>% 
  ungroup() %>% 
  arrange(Dimension, desc(MeanScore))

## `summarise()` regrouping output by 'Dimension', 'Question' (override with `.groups` argument)

score_by_dimension_question

## # A tibble: 60 x 6
##    Dimension      Question QuestionText                  Count MeanScore SdScore
##    <chr>          <chr>    <chr>                         <int>     <dbl>   <dbl>
##  1 Action Planni~ EN0163   Last year's survey results w~ 18999      4.86    1.10
##  2 Action Planni~ EN0100   I am confident that these su~ 18999      4.31    1.45
##  3 Action Planni~ EN0395   Effective actions were taken~ 18999      4.13    1.38
##  4 Customer Focus EN0053   We work hard here to exceed ~ 18999      5.14    1.03
##  5 Customer Focus EN0199   I am encouraged to look at t~ 18999      4.83    1.16
##  6 Customer Focus EN0015   We are responsive to the cha~ 18999      4.67    1.21
##  7 Development O~ CU0005   I receive the training and e~ 18999      4.60    1.25
##  8 Development O~ CU0004   I am satisfied with the coac~ 18999      4.59    1.30
##  9 Development O~ EN0043   There are sufficient opportu~ 18999      4.37    1.38
## 10 Development O~ EN0151   Our company offers excellent~ 18999      4.35    1.43
## # ... with 50 more rows

score_by_dimension_question %>% 
  dplyr::arrange(MeanScore)

## # A tibble: 60 x 6
##    Dimension      Question QuestionText                  Count MeanScore SdScore
##    <chr>          <chr>    <chr>                         <int>     <dbl>   <dbl>
##  1 Processes & R~ EN0103   We have simple processes and~ 18999      3.84    1.51
##  2 Action Planni~ EN0395   Effective actions were taken~ 18999      4.13    1.38
##  3 Teamwork       EN0187   There is effective collabora~ 18999      4.17    1.39
##  4 Total Rewards  EN0081   I think there is a clear lin~ 18999      4.18    1.49
##  5 Total Rewards  EN0024   I am paid fairly for the con~ 18999      4.20    1.43
##  6 Processes & R~ EN0330   Major change initiatives are~ 18999      4.25    1.32
##  7 Total Rewards  EN0027   I receive appropriate recogn~ 18999      4.27    1.43
##  8 Engagement     EN0004   I rarely think about leaving~ 18999      4.29    1.55
##  9 Development O~ EN0012   I have good future career op~ 18999      4.31    1.48
## 10 Action Planni~ EN0100   I am confident that these su~ 18999      4.31    1.45
## # ... with 50 more rows
…
## `summarise()` regrouping output by 'Gender', 'PotCoord', 'PerfCoord' (override with `.groups` argument)

score_by_gender_ninebox_dimension

## # A tibble: 294 x 7
##    Gender PotCoord PerfCoord Dimension       Count MeanScore SdScore
##    <chr>  <ord>    <ord>     <chr>           <int>     <dbl>   <dbl>
##  1 Female Low      Low       Action Planning    75      4.08    1.30
##  2 Female Low      Moderate  Action Planning  2091      4.49    1.33
##  3 Female Low      High      Action Planning   807      4.61    1.23
##  4 Female Moderate Low       Action Planning   246      4.57    1.28
##  5 Female Moderate Moderate  Action Planning  1953      4.60    1.29
##  6 Female Moderate High      Action Planning   744      4.59    1.28
##  7 Female High     Low       Action Planning   990      4.64    1.25
##  8 Female High     Moderate  Action Planning   672      4.77    1.23
##  9 Female High     High      Action Planning   165      4.82    1.11
## 10 Female <NA>     <NA>      Action Planning 13455      4.49    1.32
## # ... with 284 more rows
…
## `summarise()` regrouping output by 'RaceEthnicity', 'PotCoord', 'PerfCoord' (override with `.groups` argument)

score_by_race_ninebox_dimension

## # A tibble: 952 x 7
##    RaceEthnicity         PotCoord PerfCoord Dimension    Count MeanScore SdScore
##    <chr>                 <ord>    <ord>     <chr>        <int>     <dbl>   <dbl>
##  1 American Indian/Alas~ Low      Moderate  Action Plan~    24      5.21   0.721
##  2 American Indian/Alas~ Low      High      Action Plan~    15      5.27   0.884
##  3 American Indian/Alas~ Moderate Low       Action Plan~     3      3.67   1.15 
##  4 American Indian/Alas~ Moderate Moderate  Action Plan~     9      4.89   1.05 
##  5 American Indian/Alas~ Moderate High      Action Plan~     6      6      0    
##  6 American Indian/Alas~ High     Low       Action Plan~     6      4      1.67 
##  7 American Indian/Alas~ High     Moderate  Action Plan~     3      5.33   0.577
##  8 American Indian/Alas~ High     High      Action Plan~     3      4.67   0.577
##  9 American Indian/Alas~ <NA>     <NA>      Action Plan~    81      4.17   1.51 
## 10 Asian or Pacific Isl~ Low      Low       Action Plan~     9      3.67   1.41 
## # ... with 942 more rows
…
